01.07.2020, 12h ->   80 , "nach 1. Viertel"
02.07.2020, 04h ->   86 , "vor Vollmond   "
04.07.2020, 15h ->   98 , "Vollmond       "
07.07.2020, 02h ->  -98 , "nach Vollmond  "
09.07.2020, 13h ->  -85 , "vor 3. Viertel "
12.07.2020, 00h ->  -63 , "3. Viertel     "
14.07.2020, 11h ->  -37 , "nach 3. Viertel"
16.07.2020, 22h ->  -15 , "abneh. Sichel  "
19.07.2020, 09h ->   -2 , "Neumond        "
21.07.2020, 20h ->    2 , "zuneh. Sichel  "
24.07.2020, 07h ->   15 , "vor 1. Viertel "
26.07.2020, 18h ->   37 , "1. Viertel     "
29.07.2020, 06h ->   63 , "nach 1. Viertel"
31.07.2020, 17h ->   86 , "vor Vollmond   "
03.08.2020, 04h ->   98 , "Vollmond       "
05.08.2020, 15h ->  -98 , "nach Vollmond  "
08.08.2020, 02h ->  -85 , "vor 3. Viertel "
10.08.2020, 13h ->  -63 , "3. Viertel     "
13.08.2020, 00h ->  -37 , "nach 3. Viertel"
15.08.2020, 11h ->  -14 , "abneh. Sichel  "
17.08.2020, 22h ->   -2 , "Neumond        "
20.08.2020, 09h ->    2 , "zuneh. Sichel  "
22.08.2020, 20h ->   15 , "vor 1. Viertel "
25.08.2020, 07h ->   37 , "1. Viertel     "
27.08.2020, 18h ->   63 , "nach 1. Viertel"
30.08.2020, 05h ->   85 , "vor Vollmond   "
01.09.2020, 16h ->   98 , "Vollmond       "
04.09.2020, 03h ->  -98 , "nach Vollmond  "
06.09.2020, 15h ->  -85 , "vor 3. Viertel "
09.09.2020, 02h ->  -63 , "3. Viertel     "
11.09.2020, 13h ->  -37 , "nach 3. Viertel"
14.09.2020, 00h ->  -14 , "abneh. Sichel  "
16.09.2020, 11h ->   -2 , "Neumond        "
18.09.2020, 22h ->    2 , "zuneh. Sichel  "
21.09.2020, 09h ->   15 , "vor 1. Viertel "
23.09.2020, 20h ->   37 , "1. Viertel     "
26.09.2020, 07h ->   63 , "nach 1. Viertel"
28.09.2020, 18h ->   85 , "vor Vollmond   "
01.10.2020, 05h ->   98 , "Vollmond       "
03.10.2020, 16h ->  -98 , "nach Vollmond  "
06.10.2020, 03h ->  -85 , "vor 3. Viertel "
08.10.2020, 14h ->  -63 , "3. Viertel     "
11.10.2020, 01h ->  -37 , "nach 3. Viertel"
13.10.2020, 12h ->  -15 , "abneh. Sichel  "
15.10.2020, 23h ->   -2 , "Neumond        "
18.10.2020, 11h ->    2 , "zuneh. Sichel  "
20.10.2020, 22h ->   15 , "vor 1. Viertel "
23.10.2020, 09h ->   37 , "1. Viertel     "
25.10.2020, 20h ->   63 , "nach 1. Viertel"
28.10.2020, 07h ->   86 , "vor Vollmond   "
30.10.2020, 18h ->   98 , "Vollmond       "
02.11.2020, 05h ->  -98 , "nach Vollmond  "
04.11.2020, 16h ->  -85 , "vor 3. Viertel "
07.11.2020, 03h ->  -63 , "3. Viertel     "
09.11.2020, 14h ->  -37 , "nach 3. Viertel"
12.11.2020, 01h ->  -15 , "abneh. Sichel  "
14.11.2020, 12h ->   -2 , "Neumond        "
16.11.2020, 23h ->    2 , "zuneh. Sichel  "
19.11.2020, 10h ->   15 , "vor 1. Viertel "
21.11.2020, 21h ->   37 , "1. Viertel     "
24.11.2020, 08h ->   63 , "nach 1. Viertel"
26.11.2020, 20h ->   86 , "vor Vollmond   "
29.11.2020, 07h ->   98 , "Vollmond       "
01.12.2020, 18h ->  -98 , "nach Vollmond  "
04.12.2020, 05h ->  -85 , "vor 3. Viertel "
06.12.2020, 16h ->  -63 , "3. Viertel     "
09.12.2020, 03h ->  -37 , "nach 3. Viertel"
11.12.2020, 14h ->  -14 , "abneh. Sichel  "
14.12.2020, 01h ->   -2 , "Neumond        "
16.12.2020, 12h ->    2 , "zuneh. Sichel  "
18.12.2020, 23h ->   15 , "vor 1. Viertel "
21.12.2020, 10h ->   37 , "1. Viertel     "
23.12.2020, 21h ->   63 , "nach 1. Viertel"
26.12.2020, 08h ->   85 , "vor Vollmond   "
28.12.2020, 19h ->   98 , "Vollmond       "
31.12.2020, 06h ->  -98 , "nach Vollmond  "
02.01.2021, 17h ->  -85 , "vor 3. Viertel "
05.01.2021, 05h ->  -63 , "3. Viertel     "
07.01.2021, 16h ->  -37 , "nach 3. Viertel"
10.01.2021, 03h ->  -14 , "abneh. Sichel  "
12.01.2021, 14h ->   -2 , "Neumond        "
15.01.2021, 01h ->    2 , "zuneh. Sichel  "
17.01.2021, 12h ->   15 , "vor 1. Viertel "
19.01.2021, 23h ->   37 , "1. Viertel     "
22.01.2021, 10h ->   63 , "nach 1. Viertel"
24.01.2021, 21h ->   86 , "vor Vollmond   "
27.01.2021, 08h ->   98 , "Vollmond       "
29.01.2021, 19h ->  -98 , "nach Vollmond  "
01.02.2021, 06h ->  -85 , "vor 3. Viertel "
03.02.2021, 17h ->  -63 , "3. Viertel     "
06.02.2021, 04h ->  -37 , "nach 3. Viertel"
08.02.2021, 15h ->  -15 , "abneh. Sichel  "
11.02.2021, 02h ->   -2 , "Neumond        "
13.02.2021, 13h ->    2 , "zuneh. Sichel  "
16.02.2021, 01h ->   15 , "vor 1. Viertel "
18.02.2021, 12h ->   37 , "1. Viertel     "
20.02.2021, 23h ->   63 , "nach 1. Viertel"
23.02.2021, 10h ->   86 , "vor Vollmond   "
25.02.2021, 21h ->   98 , "Vollmond       "
28.02.2021, 08h ->  -98 , "nach Vollmond  "
02.03.2021, 19h ->  -85 , "vor 3. Viertel "
05.03.2021, 06h ->  -63 , "3. Viertel     "
07.03.2021, 17h ->  -37 , "nach 3. Viertel"
10.03.2021, 04h ->  -15 , "abneh. Sichel  "
12.03.2021, 15h ->   -2 , "Neumond        "
15.03.2021, 02h ->    2 , "zuneh. Sichel  "
17.03.2021, 13h ->   15 , "vor 1. Viertel "
20.03.2021, 00h ->   37 , "1. Viertel     "
22.03.2021, 11h ->   63 , "nach 1. Viertel"
24.03.2021, 22h ->   85 , "vor Vollmond   "
27.03.2021, 10h ->   98 , "Vollmond       "
29.03.2021, 21h ->  -98 , "nach Vollmond  "
01.04.2021, 08h ->  -85 , "vor 3. Viertel "
03.04.2021, 19h ->  -63 , "3. Viertel     "
06.04.2021, 06h ->  -37 , "nach 3. Viertel"
08.04.2021, 17h ->  -14 , "abneh. Sichel  "
11.04.2021, 04h ->   -2 , "Neumond        "
13.04.2021, 15h ->    2 , "zuneh. Sichel  "
16.04.2021, 02h ->   15 , "vor 1. Viertel "
18.04.2021, 13h ->   37 , "1. Viertel     "
21.04.2021, 00h ->   63 , "nach 1. Viertel"
23.04.2021, 11h ->   85 , "vor Vollmond   "
25.04.2021, 22h ->   98 , "Vollmond       "
28.04.2021, 09h ->  -98 , "nach Vollmond  "
30.04.2021, 20h ->  -85 , "vor 3. Viertel "
03.05.2021, 07h ->  -63 , "3. Viertel     "
05.05.2021, 19h ->  -37 , "nach 3. Viertel"
08.05.2021, 06h ->  -14 , "abneh. Sichel  "
10.05.2021, 17h ->   -2 , "Neumond        "
13.05.2021, 04h ->    2 , "zuneh. Sichel  "
15.05.2021, 15h ->   15 , "vor 1. Viertel "
18.05.2021, 02h ->   37 , "1. Viertel     "
20.05.2021, 13h ->   63 , "nach 1. Viertel"
23.05.2021, 00h ->   86 , "vor Vollmond   "
25.05.2021, 11h ->   98 , "Vollmond       "
27.05.2021, 22h ->  -98 , "nach Vollmond  "
30.05.2021, 09h ->  -85 , "vor 3. Viertel "
01.06.2021, 20h ->  -63 , "3. Viertel     "
04.06.2021, 07h ->  -37 , "nach 3. Viertel"
06.06.2021, 18h ->  -15 , "abneh. Sichel  "
09.06.2021, 05h ->   -2 , "Neumond        "
11.06.2021, 16h ->    2 , "zuneh. Sichel  "
14.06.2021, 03h ->   15 , "vor 1. Viertel "
16.06.2021, 15h ->   37 , "1. Viertel     "
19.06.2021, 02h ->   63 , "nach 1. Viertel"
21.06.2021, 13h ->   86 , "vor Vollmond   "
24.06.2021, 00h ->   98 , "Vollmond       "
26.06.2021, 11h ->  -98 , "nach Vollmond  "
28.06.2021, 22h ->  -85 , "vor 3. Viertel "
01.07.2021, 09h ->  -63 , "3. Viertel     "
03.07.2021, 20h ->  -37 , "nach 3. Viertel"
06.07.2021, 07h ->  -14 , "abneh. Sichel  "
08.07.2021, 18h ->   -2 , "Neumond        "
11.07.2021, 05h ->    2 , "zuneh. Sichel  "
13.07.2021, 16h ->   15 , "vor 1. Viertel "
16.07.2021, 03h ->   37 , "1. Viertel     "
18.07.2021, 14h ->   63 , "nach 1. Viertel"
21.07.2021, 01h ->   85 , "vor Vollmond   "
23.07.2021, 12h ->   98 , "Vollmond       "
26.07.2021, 00h ->  -98 , "nach Vollmond  "
28.07.2021, 11h ->  -85 , "vor 3. Viertel "
30.07.2021, 22h ->  -63 , "3. Viertel     "
02.08.2021, 09h ->  -37 , "nach 3. Viertel"
04.08.2021, 20h ->  -14 , "abneh. Sichel  "
07.08.2021, 07h ->   -2 , "Neumond        "
09.08.2021, 18h ->    2 , "zuneh. Sichel  "
12.08.2021, 05h ->   15 , "vor 1. Viertel "
14.08.2021, 16h ->   37 , "1. Viertel     "
17.08.2021, 03h ->   63 , "nach 1. Viertel"
19.08.2021, 14h ->   85 , "vor Vollmond   "
22.08.2021, 01h ->   98 , "Vollmond       "
24.08.2021, 12h ->  -98 , "nach Vollmond  "
26.08.2021, 23h ->  -85 , "vor 3. Viertel "
29.08.2021, 10h ->  -63 , "3. Viertel     "
31.08.2021, 21h ->  -37 , "nach 3. Viertel"
03.09.2021, 09h ->  -14 , "abneh. Sichel  "
05.09.2021, 20h ->   -2 , "Neumond        "
08.09.2021, 07h ->    2 , "zuneh. Sichel  "
10.09.2021, 18h ->   15 , "vor 1. Viertel "
13.09.2021, 05h ->   37 , "1. Viertel     "
15.09.2021, 16h ->   63 , "nach 1. Viertel"
18.09.2021, 03h ->   86 , "vor Vollmond   "
20.09.2021, 14h ->   98 , "Vollmond       "
23.09.2021, 01h ->  -98 , "nach Vollmond  "
25.09.2021, 12h ->  -85 , "vor 3. Viertel "
27.09.2021, 23h ->  -63 , "3. Viertel     "
30.09.2021, 10h ->  -37 , "nach 3. Viertel"
02.10.2021, 21h ->  -15 , "abneh. Sichel  "
05.10.2021, 08h ->   -2 , "Neumond        "
07.10.2021, 19h ->    2 , "zuneh. Sichel  "
10.10.2021, 06h ->   15 , "vor 1. Viertel "
12.10.2021, 17h ->   37 , "1. Viertel     "
15.10.2021, 05h ->   63 , "nach 1. Viertel"
17.10.2021, 16h ->   86 , "vor Vollmond   "
20.10.2021, 03h ->   98 , "Vollmond       "
22.10.2021, 14h ->  -98 , "nach Vollmond  "
25.10.2021, 01h ->  -85 , "vor 3. Viertel "
27.10.2021, 12h ->  -63 , "3. Viertel     "
29.10.2021, 23h ->  -37 , "nach 3. Viertel"
01.11.2021, 10h ->  -14 , "abneh. Sichel  "
03.11.2021, 21h ->   -2 , "Neumond        "
06.11.2021, 08h ->    2 , "zuneh. Sichel  "
08.11.2021, 19h ->   15 , "vor 1. Viertel "
11.11.2021, 06h ->   37 , "1. Viertel     "
13.11.2021, 17h ->   63 , "nach 1. Viertel"
16.11.2021, 04h ->   85 , "vor Vollmond   "
18.11.2021, 15h ->   98 , "Vollmond       "
21.11.2021, 02h ->  -98 , "nach Vollmond  "
23.11.2021, 14h ->  -85 , "vor 3. Viertel "
26.11.2021, 01h ->  -63 , "3. Viertel     "
28.11.2021, 12h ->  -37 , "nach 3. Viertel"
30.11.2021, 23h ->  -14 , "abneh. Sichel  "
03.12.2021, 10h ->   -2 , "Neumond        "
05.12.2021, 21h ->    2 , "zuneh. Sichel  "
08.12.2021, 08h ->   15 , "vor 1. Viertel "
10.12.2021, 19h ->   37 , "1. Viertel     "
13.12.2021, 06h ->   63 , "nach 1. Viertel"
15.12.2021, 17h ->   85 , "vor Vollmond   "
18.12.2021, 04h ->   98 , "Vollmond       "
20.12.2021, 15h ->  -98 , "nach Vollmond  "
23.12.2021, 02h ->  -85 , "vor 3. Viertel "
25.12.2021, 13h ->  -63 , "3. Viertel     "
28.12.2021, 00h ->  -37 , "nach 3. Viertel"
30.12.2021, 11h ->  -15 , "abneh. Sichel  "
01.01.2022, 22h ->   -2 , "Neumond        "
04.01.2022, 10h ->    2 , "zuneh. Sichel  "
06.01.2022, 21h ->   15 , "vor 1. Viertel "
09.01.2022, 08h ->   37 , "1. Viertel     "
11.01.2022, 19h ->   63 , "nach 1. Viertel"
14.01.2022, 06h ->   86 , "vor Vollmond   "
16.01.2022, 17h ->   98 , "Vollmond       "
19.01.2022, 04h ->  -98 , "nach Vollmond  "
21.01.2022, 15h ->  -85 , "vor 3. Viertel "
24.01.2022, 02h ->  -63 , "3. Viertel     "
26.01.2022, 13h ->  -37 , "nach 3. Viertel"
29.01.2022, 00h ->  -15 , "abneh. Sichel  "
31.01.2022, 11h ->   -2 , "Neumond        "
02.02.2022, 22h ->    2 , "zuneh. Sichel  "
05.02.2022, 09h ->   15 , "vor 1. Viertel "
07.02.2022, 20h ->   37 , "1. Viertel     "
10.02.2022, 07h ->   63 , "nach 1. Viertel"
12.02.2022, 19h ->   86 , "vor Vollmond   "
15.02.2022, 06h ->   98 , "Vollmond       "
17.02.2022, 17h ->  -98 , "nach Vollmond  "
20.02.2022, 04h ->  -85 , "vor 3. Viertel "
22.02.2022, 15h ->  -63 , "3. Viertel     "
25.02.2022, 02h ->  -37 , "nach 3. Viertel"
27.02.2022, 13h ->  -14 , "abneh. Sichel  "
02.03.2022, 00h ->   -2 , "Neumond        "
04.03.2022, 11h ->    2 , "zuneh. Sichel  "
06.03.2022, 22h ->   15 , "vor 1. Viertel "
09.03.2022, 09h ->   37 , "1. Viertel     "
11.03.2022, 20h ->   63 , "nach 1. Viertel"
14.03.2022, 07h ->   85 , "vor Vollmond   "
16.03.2022, 18h ->   98 , "Vollmond       "
19.03.2022, 05h ->  -98 , "nach Vollmond  "
21.03.2022, 16h ->  -85 , "vor 3. Viertel "
24.03.2022, 04h ->  -63 , "3. Viertel     "
26.03.2022, 15h ->  -37 , "nach 3. Viertel"
29.03.2022, 02h ->  -14 , "abneh. Sichel  "
31.03.2022, 13h ->   -2 , "Neumond        "
03.04.2022, 00h ->    2 , "zuneh. Sichel  "
05.04.2022, 11h ->   15 , "vor 1. Viertel "
07.04.2022, 22h ->   37 , "1. Viertel     "
10.04.2022, 09h ->   63 , "nach 1. Viertel"
12.04.2022, 20h ->   86 , "vor Vollmond   "
15.04.2022, 07h ->   98 , "Vollmond       "
17.04.2022, 18h ->  -98 , "nach Vollmond  "
20.04.2022, 05h ->  -85 , "vor 3. Viertel "
22.04.2022, 16h ->  -63 , "3. Viertel     "
25.04.2022, 03h ->  -37 , "nach 3. Viertel"
27.04.2022, 14h ->  -15 , "abneh. Sichel  "
30.04.2022, 01h ->   -2 , "Neumond        "
02.05.2022, 12h ->    2 , "zuneh. Sichel  "
05.05.2022, 00h ->   15 , "vor 1. Viertel "
07.05.2022, 11h ->   37 , "1. Viertel     "
09.05.2022, 22h ->   63 , "nach 1. Viertel"
12.05.2022, 09h ->   86 , "vor Vollmond   "
14.05.2022, 20h ->   98 , "Vollmond       "
17.05.2022, 07h ->  -98 , "nach Vollmond  "
19.05.2022, 18h ->  -85 , "vor 3. Viertel "
22.05.2022, 05h ->  -63 , "3. Viertel     "
24.05.2022, 16h ->  -37 , "nach 3. Viertel"
27.05.2022, 03h ->  -15 , "abneh. Sichel  "
29.05.2022, 14h ->   -2 , "Neumond        "
01.06.2022, 01h ->    2 , "zuneh. Sichel  "
03.06.2022, 12h ->   15 , "vor 1. Viertel "
05.06.2022, 23h ->   37 , "1. Viertel     "
08.06.2022, 10h ->   63 , "nach 1. Viertel"
10.06.2022, 21h ->   85 , "vor Vollmond   "
13.06.2022, 09h ->   98 , "Vollmond       "
15.06.2022, 20h ->  -98 , "nach Vollmond  "
18.06.2022, 07h ->  -85 , "vor 3. Viertel "
20.06.2022, 18h ->  -63 , "3. Viertel     "
23.06.2022, 05h ->  -37 , "nach 3. Viertel"
25.06.2022, 16h ->  -14 , "abneh. Sichel  "
28.06.2022, 03h ->   -2 , "Neumond        "
30.06.2022, 14h ->    2 , "zuneh. Sichel  "
03.07.2022, 01h ->   15 , "vor 1. Viertel "
05.07.2022, 12h ->   37 , "1. Viertel     "
